<svg width="13" height="12" viewBox="0 0 13 12" fill="none" xmlns="http://www.w3.org/2000/svg">
<g id="IONIcon/P/person/default" clip-path="url(#clip0_1_76)">
<path id="Vector" d="M8.2961 1.51317C7.84001 1.02074 7.20298 0.749573 6.49985 0.749573C5.79298 0.749573 5.15384 1.0191 4.69985 1.50848C4.24095 2.00324 4.01735 2.67567 4.06985 3.40176C4.17392 4.83426 5.26399 5.99957 6.49985 5.99957C7.73571 5.99957 8.82392 4.83449 8.92962 3.40223C8.98282 2.6827 8.75782 2.01168 8.2961 1.51317Z" fill="#718096"/>
<path id="Vector_2" d="M10.6249 11.249H2.3749C2.26692 11.2504 2.15998 11.2277 2.06187 11.1826C1.96375 11.1375 1.87693 11.0711 1.80772 10.9882C1.65537 10.8061 1.59397 10.5574 1.63944 10.3059C1.83725 9.20855 2.45459 8.28676 3.4249 7.63965C4.28693 7.0652 5.37889 6.74902 6.4999 6.74902C7.62092 6.74902 8.71287 7.06543 9.5749 7.63965C10.5452 8.28652 11.1626 9.20832 11.3604 10.3057C11.4058 10.5571 11.3444 10.8058 11.1921 10.9879C11.1229 11.0709 11.0361 11.1373 10.938 11.1825C10.8399 11.2277 10.7329 11.2504 10.6249 11.249Z" fill="#718096"/>
</g>
<defs>
<clipPath id="clip0_1_76">
<rect width="12" height="12" fill="white" transform="translate(0.499924 -0.000244141)"/>
</clipPath>
</defs>
</svg>
